\contentsline {section}{\numberline {1}Rzeczy matematyczne}{2}{section.1}
\contentsline {subsection}{\numberline {1.1}Wzory}{2}{subsection.1.1}
\contentsline {subsection}{\numberline {1.2}Macierze}{2}{subsection.1.2}
\contentsline {subsection}{\numberline {1.3}Tabele}{2}{subsection.1.3}
\contentsline {section}{\numberline {2}Grafika}{3}{section.2}
\contentsline {subsection}{\numberline {2.1}Grafika rastrowa}{3}{subsection.2.1}
\contentsline {subsection}{\numberline {2.2}Grafika wektrowa}{3}{subsection.2.2}
