%!PS-Adobe-3.0 EPSF-3.0
%%Creator: cairo 1.11.2 (http://cairographics.org)
%%CreationDate: Thu Dec 11 20:08:46 2014
%%Pages: 1
%%DocumentData: Clean7Bit
%%LanguageLevel: 2
%%BoundingBox: 0 -1 275 275
%%EndComments
%%BeginProlog
/cairo_eps_state save def
/dict_count countdictstack def
/op_count count 1 sub def
userdict begin
/q { gsave } bind def
/Q { grestore } bind def
/cm { 6 array astore concat } bind def
/w { setlinewidth } bind def
/J { setlinecap } bind def
/j { setlinejoin } bind def
/M { setmiterlimit } bind def
/d { setdash } bind def
/m { moveto } bind def
/l { lineto } bind def
/c { curveto } bind def
/h { closepath } bind def
/re { exch dup neg 3 1 roll 5 3 roll moveto 0 rlineto
      0 exch rlineto 0 rlineto closepath } bind def
/S { stroke } bind def
/f { fill } bind def
/f* { eofill } bind def
/n { newpath } bind def
/W { clip } bind def
/W* { eoclip } bind def
/BT { } bind def
/ET { } bind def
/pdfmark where { pop globaldict /?pdfmark /exec load put }
    { globaldict begin /?pdfmark /pop load def /pdfmark
    /cleartomark load def end } ifelse
/BDC { mark 3 1 roll /BDC pdfmark } bind def
/EMC { mark /EMC pdfmark } bind def
/cairo_store_point { /cairo_point_y exch def /cairo_point_x exch def } def
/Tj { show currentpoint cairo_store_point } bind def
/TJ {
  {
    dup
    type /stringtype eq
    { show } { -0.001 mul 0 cairo_font_matrix dtransform rmoveto } ifelse
  } forall
  currentpoint cairo_store_point
} bind def
/cairo_selectfont { cairo_font_matrix aload pop pop pop 0 0 6 array astore
    cairo_font exch selectfont cairo_point_x cairo_point_y moveto } bind def
/Tf { pop /cairo_font exch def /cairo_font_matrix where
      { pop cairo_selectfont } if } bind def
/Td { matrix translate cairo_font_matrix matrix concatmatrix dup
      /cairo_font_matrix exch def dup 4 get exch 5 get cairo_store_point
      /cairo_font where { pop cairo_selectfont } if } bind def
/Tm { 2 copy 8 2 roll 6 array astore /cairo_font_matrix exch def
      cairo_store_point /cairo_font where { pop cairo_selectfont } if } bind def
/g { setgray } bind def
/rg { setrgbcolor } bind def
/d1 { setcachedevice } bind def
%%EndProlog
%%Page: 1 1
%%BeginPageSetup
%%PageBoundingBox: 0 -1 275 275
%%EndPageSetup
q 0 -1 275 276 rectclip q
0 274.286 275 -275 re W n
0.901961 g
274.285 137.141 m 274.285 61.399 212.887 0.001 137.145 0.001 c 61.402 0.001
 0 61.399 0 137.141 c 0 212.883 61.402 274.286 137.145 274.286 c 212.887
 274.286 274.285 212.883 274.285 137.141 c h
f
0.101961 g
96 193.141 m 96 182.415 87.301 173.715 76.57 173.715 c 65.84 173.715 57.145
 182.415 57.145 193.141 c 57.145 203.872 65.84 212.571 76.57 212.571 c 87.301
 212.571 96 203.872 96 193.141 c h
f
216 194.286 m 216 183.555 207.301 174.856 196.57 174.856 c 185.84 174.856
 177.145 183.555 177.145 194.286 c 177.145 205.016 185.84 213.715 196.57
 213.715 c 207.301 213.715 216 205.016 216 194.286 c h
f
38.855 96.001 m 240 96.001 l 240 96.001 118.855 41.141 38.855 96.001 c 
h
f
0 g
0.8 w
0 J
0 j
[] 0.0 d
4 M q 1 0 0 -1 0 274.285706 cm
38.855 178.285 m 240 178.285 l 240 178.285 118.855 233.145 38.855 178.285
 c h
S Q
Q Q
showpage
%%Trailer
count op_count sub {pop} repeat
countdictstack dict_count sub {end} repeat
cairo_eps_state restore
%%EOF
